packet_generator.vcd
$date
	Thu Aug 29 12:58:51 2024
$end
$version
	QuestaSim Version 2021.1
$end
$timescale
	1ns
$end

$scope module tb_top_packet_generator $end

$scope module dut $end
$var wire 1 ! clk $end
$var wire 1 " rst $end
$var wire 1 # src_valid $end
$var wire 1 $ dd_ready $end
$var reg 1 % src_ready $end
$var reg 1 & dd_valid $end
$var reg 13 ' packet [12:0] $end
$var reg 1 ( generate_packet $end

$scope module u_control_unit $end
$var wire 1 ! clk $end
$var wire 1 " rst $end
$var wire 1 # src_valid $end
$var wire 1 $ dd_ready $end
$var reg 1 ) src_ready $end
$var reg 1 * dd_valid $end
$var reg 1 + generate_packet $end
$var reg 3 , state [2:0] $end
$var reg 3 - next_state [2:0] $end
$upscope $end

$scope module u_packet_generator $end
$var wire 1 ! clk $end
$var wire 1 " rst $end
$var wire 1 . generate_packet $end
$var reg 13 / packet [12:0] $end
$var reg 2 0 dest_addr [1:0] $end
$var reg 2 1 packet_type [1:0] $end
$var reg 8 2 payload [7:0] $end
$var reg 1 3 eop $end
$upscope $end
$upscope $end
$upscope $end
$enddefinitions $end
#0
$dumpvars
1%
0&
b0 '
0(
1)
0*
0+
b0 ,
b0 -
b0 /
b0 0
b0 1
b0 2
03
x$
x#
1"
0!
0.
$end
#5
1!
0"
1#
0)
1)
1+
b1 -
1(
1.
b11 0
b10011100 2
#10
0!
#15
1!
1$
0)
0+
b0 -
1)
1+
b1 -
b1 ,
b1100100111000 /
b1100100111000 '
0)
0+
1+
1*
b0 -
1&
0%
#20
0!
#25
1!
0#
0*
0+
b1 -
1+
1*
b0 -
b0 ,
0*
0+
1)
1%
0(
0&
0.
b0 0
b0 2
#30
0!
#35
1!
1#
0)
1)
1+
b1 -
1(
1.
b11 1
b10110 2
#40
0!
#45
1!
b11000101100 /
b1 ,
b11000101100 '
0)
0+
1+
1*
b0 -
1&
0%
#50
0!
#55
1!
0#
0*
0+
b1 -
1+
1*
b0 -
b0 ,
0*
0+
1)
1%
0(
0&
0.
b0 1
b0 2
#60
0!
#65
1!
1#
0)
1)
1+
b1 -
1(
1.
b1 1
b11111000 2
13
#70
0!
#75
1!
b1111110001 /
b1 ,
b1111110001 '
0)
0+
1+
1*
b0 -
1&
0%
#80
0!
#85
1!
0#
0*
0+
b1 -
1+
1*
b0 -
b0 ,
0*
0+
1)
1%
0(
0&
0.
b0 1
b0 2
03
#90
0!
#95
1!
1#
0)
1)
1+
b1 -
1(
1.
b1 0
b10 1
b11111100 2
13
#100
0!
#105
1!
b110111111001 /
b1 ,
b110111111001 '
0)
0+
1+
1*
b0 -
1&
0%
#110
0!
#115
1!
0#
0*
0+
b1 -
1+
1*
b0 -
b0 ,
0*
0+
1)
1%
0(
0&
0.
b0 0
b0 1
b0 2
03
#120
0!
#125
1!
1#
0)
1)
1+
b1 -
1(
1.
b10 0
b10 1
b10010000 2
13
#130
0!
#135
1!
b1010100100001 /
b1 ,
b1010100100001 '
0)
0+
1+
1*
b0 -
1&
0%
#140
0!
#145
1!
0#
0*
0+
b1 -
1+
1*
b0 -
b0 ,
0*
0+
1)
1%
0(
0&
0.
b0 0
b0 1
b0 2
03
#150
0!
#155
1!
1#
0)
1)
1+
b1 -
1(
1.
b10 0
b11 1
b10000110 2
#160
0!
#165
1!
b1011100001100 /
b1 ,
b1011100001100 '
0)
0+
1+
1*
b0 -
1&
0%
#170
0!
#175
1!
0#
0*
0+
b1 -
1+
1*
b0 -
b0 ,
0*
0+
1)
1%
0(
0&
0.
b0 0
b0 1
b0 2
#180
0!
#185
1!
1#
0)
1)
1+
b1 -
1(
1.
b1 0
b1001111 2
#190
0!
#195
1!
b100010011110 /
b1 ,
b100010011110 '
0)
0+
1+
1*
b0 -
1&
0%
#200
0!
#205
1!
0#
0*
0+
b1 -
1+
1*
b0 -
b0 ,
0*
0+
1)
1%
0(
0&
0.
b0 0
b0 2
#210
0!
#215
1!
1#
0)
1)
1+
b1 -
1(
1.
b11 0
b11 1
b11110 2
#220
0!
#225
1!
b1111000111100 /
b1 ,
b1111000111100 '
0)
0+
1+
1*
b0 -
1&
0%
#230
0!
#235
1!
0#
0*
0+
b1 -
1+
1*
b0 -
b0 ,
0*
0+
1)
1%
0(
0&
0.
b0 0
b0 1
b0 2
#240
0!
#245
1!
1#
0)
1)
1+
b1 -
1(
1.
b10011110 2
13
#250
0!
#255
1!
b100111101 /
b1 ,
b100111101 '
0)
0+
1+
1*
b0 -
1&
0%
#260
0!
#265
1!
0#
0*
0+
b1 -
1+
1*
b0 -
b0 ,
0*
0+
1)
1%
0(
0&
0.
b0 2
03
#270
0!
#275
1!
1#
0)
1)
1+
b1 -
1(
1.
b10 0
b11 1
b1010010 2
13
#280
0!
#285
1!
b1011010100101 /
b1 ,
b1011010100101 '
0)
0+
1+
1*
b0 -
1&
0%
#290
0!
#295
1!
0#
0*
0+
b1 -
1+
1*
b0 -
b0 ,
0*
0+
1)
1%
0(
0&
0.
b0 0
b0 1
b0 2
03
#300
0!
#305
1!
1#
0)
1)
1+
b1 -
1(
1.
b1 0
b10011001 2
#310
0!
#315
1!
b100100110010 /
b1 ,
b100100110010 '
0)
0+
1+
1*
b0 -
1&
0%
#320
0!
#325
1!
0#
0*
0+
b1 -
1+
1*
b0 -
b0 ,
0*
0+
1)
1%
0(
0&
0.
b0 0
b0 2
#330
0!
#335
1!
1#
0)
1)
1+
b1 -
1(
1.
b10 0
b11100001 2
#340
0!
#345
1!
b1000111000010 /
b1 ,
b1000111000010 '
0)
0+
1+
1*
b0 -
1&
0%
#350
0!
#355
1!
0#
0*
0+
b1 -
1+
1*
b0 -
b0 ,
0*
0+
1)
1%
0(
0&
0.
b0 0
b0 2
#360
0!
#365
1!
1#
0)
1)
1+
b1 -
1(
1.
b11 0
b1 1
b10100 2
13
#370
0!
#375
1!
b1101000101001 /
b1 ,
b1101000101001 '
0)
0+
1+
1*
b0 -
1&
0%
#380
0!
#385
1!
0#
0*
0+
b1 -
1+
1*
b0 -
b0 ,
0*
0+
1)
1%
0(
0&
0.
b0 0
b0 1
b0 2
03
#390
0!
#395
1!
1#
0)
1)
1+
b1 -
1(
1.
b1 0
b1 1
b1001000 2
13
#400
0!
#405
1!
b101010010001 /
b1 ,
b101010010001 '
0)
0+
1+
1*
b0 -
1&
0%
#410
0!
#415
1!
0#
0*
0+
b1 -
1+
1*
b0 -
b0 ,
0*
0+
1)
1%
0(
0&
0.
b0 0
b0 1
b0 2
03
#420
0!
#425
1!
1#
0)
1)
1+
b1 -
1(
1.
b1 0
b1 1
b11110101 2
#430
0!
#435
1!
b101111101010 /
b1 ,
b101111101010 '
0)
0+
1+
1*
b0 -
1&
0%
#440
0!
#445
1!
0#
0*
0+
b1 -
1+
1*
b0 -
b0 ,
0*
0+
1)
1%
0(
0&
0.
b0 0
b0 1
b0 2
#450
0!
#455
1!
1#
0)
1)
1+
b1 -
1(
1.
b10 0
b10 1
b1110001 2
13
#460
0!
#465
1!
b1010011100011 /
b1 ,
b1010011100011 '
0)
0+
1+
1*
b0 -
1&
0%
#470
0!
#475
1!
0#
0*
0+
b1 -
1+
1*
b0 -
b0 ,
0*
0+
1)
1%
0(
0&
0.
b0 0
b0 1
b0 2
03
#480
0!
#485
1!
1#
0)
1)
1+
b1 -
1(
1.
b1 0
b11 1
b1111110 2
13
#490
0!
#495
1!
b111011111101 /
b1 ,
b111011111101 '
0)
0+
1+
1*
b0 -
1&
0%
#500
0!
#505
1!
0#
0*
0+
b1 -
1+
1*
b0 -
b0 ,
0*
0+
1)
1%
0(
0&
0.
b0 0
b0 1
b0 2
03
#510
0!
#515
1!
1#
0)
1)
1+
b1 -
1(
1.
b1 0
b10 1
b111000 2
13
#520
0!
#525
1!
b110001110001 /
b1 ,
b110001110001 '
0)
0+
1+
1*
b0 -
1&
0%
#530
0!
#535
1!
0#
0*
0+
b1 -
1+
1*
b0 -
b0 ,
0*
0+
1)
1%
0(
0&
0.
b0 0
b0 1
b0 2
03
#540
0!
#545
1!
1#
0)
1)
1+
b1 -
1(
1.
b1 0
b10 1
b11000 2
13
#550
0!
#555
1!
b110000110001 /
b1 ,
b110000110001 '
0)
0+
1+
1*
b0 -
1&
0%
#560
0!
#565
1!
0#
0*
0+
b1 -
1+
1*
b0 -
b0 ,
0*
0+
1)
1%
0(
0&
0.
b0 0
b0 1
b0 2
03
#570
0!
#575
1!
1#
0)
1)
1+
b1 -
1(
1.
b1 1
b11100001 2
#580
0!
#585
1!
b1111000010 /
b1 ,
b1111000010 '
0)
0+
1+
1*
b0 -
1&
0%
#590
0!
#595
1!
0#
0*
0+
b1 -
1+
1*
b0 -
b0 ,
0*
0+
1)
1%
0(
0&
0.
b0 1
b0 2
#600
0!
#605
1!
1#
0)
1)
1+
b1 -
1(
1.
b10 0
b11 1
b1101 2
13
#610
0!
#615
1!
b1011000011011 /
b1 ,
b1011000011011 '
0)
0+
1+
1*
b0 -
1&
0%
#620
0!
#625
1!
0#
0*
0+
b1 -
1+
1*
b0 -
b0 ,
0*
0+
1)
1%
0(
0&
0.
b0 0
b0 1
b0 2
03
#630
0!
#635
1!
1#
0)
1)
1+
b1 -
1(
1.
b11 1
b11000001 2
13
#640
0!
#645
1!
b11110000011 /
b1 ,
b11110000011 '
0)
0+
1+
1*
b0 -
1&
0%
#650
0!
#655
1!
0#
0*
0+
b1 -
1+
1*
b0 -
b0 ,
0*
0+
1)
1%
0(
0&
0.
b0 1
b0 2
03
#660
0!
#665
1!
1#
0)
1)
1+
b1 -
1(
1.
b10 0
b1 1
b11001001 2
#670
0!
#675
1!
b1001110010010 /
b1 ,
b1001110010010 '
0)
0+
1+
1*
b0 -
1&
0%
#680
0!
#685
1!
0#
0*
0+
b1 -
1+
1*
b0 -
b0 ,
0*
0+
1)
1%
0(
0&
0.
b0 0
b0 1
b0 2
#690
0!
#695
1!
1#
0)
1)
1+
b1 -
1(
1.
b11 0
b1 1
b11010110 2
13
#700
0!
#705
1!
b1101110101101 /
b1 ,
b1101110101101 '
0)
0+
1+
1*
b0 -
1&
0%
#710
0!
#715
1!
0#
0*
0+
b1 -
1+
1*
b0 -
b0 ,
0*
0+
1)
1%
0(
0&
0.
b0 0
b0 1
b0 2
03
#720
0!
#725
1!
1#
0)
1)
1+
b1 -
1(
1.
b10 0
b11 1
b11100000 2
13
#730
0!
#735
1!
b1011111000001 /
b1 ,
b1011111000001 '
0)
0+
1+
1*
b0 -
1&
0%
#740
0!
#745
1!
0#
0*
0+
b1 -
1+
1*
b0 -
b0 ,
0*
0+
1)
1%
0(
0&
0.
b0 0
b0 1
b0 2
03
#750
0!
#755
1!
1#
0)
1)
1+
b1 -
1(
1.
b1 0
b111111 2
13
#760
0!
#765
1!
b100001111111 /
b1 ,
b100001111111 '
0)
0+
1+
1*
b0 -
1&
0%
#770
0!
#775
1!
0#
0*
0+
b1 -
1+
1*
b0 -
b0 ,
0*
0+
1)
1%
0(
0&
0.
b0 0
b0 2
03
#780
0!
#785
1!
1#
0)
1)
1+
b1 -
1(
1.
b10 0
b1 1
b1111101 2
#790
0!
#795
1!
b1001011111010 /
b1 ,
b1001011111010 '
0)
0+
1+
1*
b0 -
1&
0%
#800
0!
#805
1!
0#
0*
0+
b1 -
1+
1*
b0 -
b0 ,
0*
0+
1)
1%
0(
0&
0.
b0 0
b0 1
b0 2
#810
0!
#815
1!
1#
0)
1)
1+
b1 -
1(
1.
b10 1
b11100010 2
13
#820
0!
#825
1!
b10111000101 /
b1 ,
b10111000101 '
0)
0+
1+
1*
b0 -
1&
0%
#830
0!
#835
1!
0#
0*
0+
b1 -
1+
1*
b0 -
b0 ,
0*
0+
1)
1%
0(
0&
0.
b0 1
b0 2
03
#840
0!
#845
1!
1#
0)
1)
1+
b1 -
1(
1.
b11 0
b11 1
b11111100 2
13
#850
0!
#855
1!
b1111111111001 /
b1 ,
b1111111111001 '
0)
0+
1+
1*
b0 -
1&
0%
#860
0!
#865
1!
0#
0*
0+
b1 -
1+
1*
b0 -
b0 ,
0*
0+
1)
1%
0(
0&
0.
b0 0
b0 1
b0 2
03
#870
0!
#875
1!
1#
0)
1)
1+
b1 -
1(
1.
b1 0
b10 1
b10001001 2
13
#880
0!
#885
1!
b110100010011 /
b1 ,
b110100010011 '
0)
0+
1+
1*
b0 -
1&
0%
#890
0!
#895
1!
0#
0*
0+
b1 -
1+
1*
b0 -
b0 ,
0*
0+
1)
1%
0(
0&
0.
b0 0
b0 1
b0 2
03
#900
0!
#905
1!
1#
0)
1)
1+
b1 -
1(
1.
b1 0
b10 1
b10101101 2
13
#910
0!
#915
1!
b110101011011 /
b1 ,
b110101011011 '
0)
0+
1+
1*
b0 -
1&
0%
#920
0!
#925
1!
0#
0*
0+
b1 -
1+
1*
b0 -
b0 ,
0*
0+
1)
1%
0(
0&
0.
b0 0
b0 1
b0 2
03
#930
0!
#935
1!
1#
0)
1)
1+
b1 -
1(
1.
b1111101 2
#940
0!
#945
1!
b11111010 /
b1 ,
b11111010 '
0)
0+
1+
1*
b0 -
1&
0%
#950
0!
#955
1!
0#
0*
0+
b1 -
1+
1*
b0 -
b0 ,
0*
0+
1)
1%
0(
0&
0.
b0 2
#960
0!
#965
1!
1#
0)
1)
1+
b1 -
1(
1.
b10 1
b10101111 2
13
#970
0!
#975
1!
b10101011111 /
b1 ,
b10101011111 '
0)
0+
1+
1*
b0 -
1&
0%
#980
0!
#985
1!
0#
0*
0+
b1 -
1+
1*
b0 -
b0 ,
0*
0+
1)
1%
0(
0&
0.
b0 1
b0 2
03
#990
0!
#995
1!
1#
0)
1)
1+
b1 -
1(
1.
b1 0
b1 1
b11110 2
#1000
0!
#1005
1!
b101000111100 /
b1 ,
b101000111100 '
0)
0+
1+
1*
b0 -
1&
0%
#1010
0!
#1015
1!
0#
0*
0+
b1 -
1+
1*
b0 -
b0 ,
0*
0+
1)
1%
0(
0&
0.
b0 0
b0 1
b0 2
#1020
0!
#1025
1!
1#
0)
1)
1+
b1 -
1(
1.
b10 0
b100101 2
#1030
0!
#1035
1!
b1000001001010 /
b1 ,
b1000001001010 '
0)
0+
1+
1*
b0 -
1&
0%
#1040
0!
#1045
1!
0#
0*
0+
b1 -
1+
1*
b0 -
b0 ,
0*
0+
1)
1%
0(
0&
0.
b0 0
b0 2
#1050
0!
#1055
1!
1#
0)
1)
1+
b1 -
1(
1.
b1 0
b10 1
13
#1060
0!
#1065
1!
b110000000001 /
b1 ,
b110000000001 '
0)
0+
1+
1*
b0 -
1&
0%
#1070
0!
#1075
1!
0#
0*
0+
b1 -
1+
1*
b0 -
b0 ,
0*
0+
1)
1%
0(
0&
0.
b0 0
b0 1
03
#1080
0!
#1085
1!
1#
0)
1)
1+
b1 -
1(
1.
b11 0
b10 1
b1011110 2
13
#1090
0!
#1095
1!
b1110010111101 /
b1 ,
b1110010111101 '
0)
0+
1+
1*
b0 -
1&
0%
#1100
0!
#1105
1!
0#
0*
0+
b1 -
1+
1*
b0 -
b0 ,
0*
0+
1)
1%
0(
0&
0.
b0 0
b0 1
b0 2
03
#1110
0!
#1115
1!
1#
0)
1)
1+
b1 -
1(
1.
b11 0
b10 1
b1000001 2
13
#1120
0!
#1125
1!
b1110010000011 /
b1 ,
b1110010000011 '
0)
0+
1+
1*
b0 -
1&
0%
#1130
0!
#1135
1!
0#
0*
0+
b1 -
1+
1*
b0 -
b0 ,
0*
0+
1)
1%
0(
0&
0.
b0 0
b0 1
b0 2
03
#1140
0!
#1145
1!
1#
0)
1)
1+
b1 -
1(
1.
b1 0
b1111001 2
13
#1150
0!
#1155
1!
b100011110011 /
b1 ,
b100011110011 '
0)
0+
1+
1*
b0 -
1&
0%
#1160
0!
#1165
1!
0#
0*
0+
b1 -
1+
1*
b0 -
b0 ,
0*
0+
1)
1%
0(
0&
0.
b0 0
b0 2
03
#1170
0!
#1175
1!
1#
0)
1)
1+
b1 -
1(
1.
b10 1
b10101100 2
13
#1180
0!
#1185
1!
b10101011001 /
b1 ,
b10101011001 '
0)
0+
1+
1*
b0 -
1&
0%
#1190
0!
#1195
1!
0#
0*
0+
b1 -
1+
1*
b0 -
b0 ,
0*
0+
1)
1%
0(
0&
0.
b0 1
b0 2
03
#1200
0!
#1205
1!
1#
0)
1)
1+
b1 -
1(
1.
b10 0
b10001111 2
#1210
0!
#1215
1!
b1000100011110 /
b1 ,
b1000100011110 '
0)
0+
1+
1*
b0 -
1&
0%
#1220
0!
#1225
1!
0#
0*
0+
b1 -
1+
1*
b0 -
b0 ,
0*
0+
1)
1%
0(
0&
0.
b0 0
b0 2
#1230
0!
#1235
1!
1#
0)
1)
1+
b1 -
1(
1.
b11 0
b10 1
b10110101 2
13
#1240
0!
#1245
1!
b1110101101011 /
b1 ,
b1110101101011 '
0)
0+
1+
1*
b0 -
1&
0%
#1250
0!
#1255
1!
0#
0*
0+
b1 -
1+
1*
b0 -
b0 ,
0*
0+
1)
1%
0(
0&
0.
b0 0
b0 1
b0 2
03
#1260
0!
#1265
1!
1#
0)
1)
1+
b1 -
1(
1.
b1 1
b10110000 2
13
#1270
0!
#1275
1!
b1101100001 /
b1 ,
b1101100001 '
0)
0+
1+
1*
b0 -
1&
0%
#1280
0!
#1285
1!
0#
0*
0+
b1 -
1+
1*
b0 -
b0 ,
0*
0+
1)
1%
0(
0&
0.
b0 1
b0 2
03
#1290
0!
#1295
1!
1#
0)
1)
1+
b1 -
1(
1.
b1 0
b1 1
b10101010 2
#1300
0!
#1305
1!
b101101010100 /
b1 ,
b101101010100 '
0)
0+
1+
1*
b0 -
1&
0%
#1310
0!
#1315
1!
0#
0*
0+
b1 -
1+
1*
b0 -
b0 ,
0*
0+
1)
1%
0(
0&
0.
b0 0
b0 1
b0 2
#1320
0!
#1325
1!
1#
0)
1)
1+
b1 -
1(
1.
b11 0
b1 1
b11010010 2
13
#1330
0!
#1335
1!
b1101110100101 /
b1 ,
b1101110100101 '
0)
0+
1+
1*
b0 -
1&
0%
#1340
0!
#1345
1!
0#
0*
0+
b1 -
1+
1*
b0 -
b0 ,
0*
0+
1)
1%
0(
0&
0.
b0 0
b0 1
b0 2
03
#1350
0!
#1355
1!
1#
0)
1)
1+
b1 -
1(
1.
b1 0
b11 1
b11111000 2
#1360
0!
#1365
1!
b111111110000 /
b1 ,
b111111110000 '
0)
0+
1+
1*
b0 -
1&
0%
#1370
0!
#1375
1!
0#
0*
0+
b1 -
1+
1*
b0 -
b0 ,
0*
0+
1)
1%
0(
0&
0.
b0 0
b0 1
b0 2
#1380
0!
#1385
1!
1#
0)
1)
1+
b1 -
1(
1.
b1111000 2
#1390
0!
#1395
1!
b11110000 /
b1 ,
b11110000 '
0)
0+
1+
1*
b0 -
1&
0%
#1400
0!
#1405
1!
0#
0*
0+
b1 -
1+
1*
b0 -
b0 ,
0*
0+
1)
1%
0(
0&
0.
b0 2
#1410
0!
#1415
1!
1#
0)
1)
1+
b1 -
1(
1.
b1 0
b1011001 2
#1420
0!
#1425
1!
b100010110010 /
b1 ,
b100010110010 '
0)
0+
1+
1*
b0 -
1&
0%
#1430
0!
#1435
1!
0#
0*
0+
b1 -
1+
1*
b0 -
b0 ,
0*
0+
1)
1%
0(
0&
0.
b0 0
b0 2
#1440
0!
#1445
1!
1#
0)
1)
1+
b1 -
1(
1.
b11 0
b1 1
b1010101 2
#1450
0!
#1455
1!
b1101010101010 /
b1 ,
b1101010101010 '
0)
0+
1+
1*
b0 -
1&
0%
#1460
0!
#1465
1!
0#
0*
0+
b1 -
1+
1*
b0 -
b0 ,
0*
0+
1)
1%
0(
0&
0.
b0 0
b0 1
b0 2
#1470
0!
#1475
1!
1#
0)
1)
1+
b1 -
1(
1.
b1 0
b1 1
b10101111 2
#1480
0!
#1485
1!
b101101011110 /
b1 ,
b101101011110 '
0)
0+
1+
1*
b0 -
1&
0%
#1490
0!
#1495
1!
0#
0*
0+
b1 -
1+
1*
b0 -
b0 ,
0*
0+
1)
1%
0(
0&
0.
b0 0
b0 1
b0 2
#1500
0!
#1505
1!
1#
0)
1)
1+
b1 -
1(
1.
b10 0
b1101 2
13
#1510
0!
#1515
1!
b1000000011011 /
b1 ,
b1000000011011 '
0)
0+
1+
1*
b0 -
1&
0%
#1520
0!
#1525
1!
0#
0*
0+
b1 -
1+
1*
b0 -
b0 ,
0*
0+
1)
1%
0(
0&
0.
b0 0
b0 2
03
#1530
0!
#1535
1!
1#
0)
1)
1+
b1 -
1(
1.
b10 1
b1100011 2
13
#1540
0!
#1545
1!
b10011000111 /
b1 ,
b10011000111 '
0)
0+
1+
1*
b0 -
1&
0%
#1550
0!
#1555
1!
0#
0*
0+
b1 -
1+
1*
b0 -
b0 ,
0*
0+
1)
1%
0(
0&
0.
b0 1
b0 2
03
#1560
0!
#1565
1!
1#
0)
1)
1+
b1 -
1(
1.
b11 0
b10 1
b10000000 2
13
#1570
0!
#1575
1!
b1110100000001 /
b1 ,
b1110100000001 '
0)
0+
1+
1*
b0 -
1&
0%
#1580
0!
#1585
1!
0#
0*
0+
b1 -
1+
1*
b0 -
b0 ,
0*
0+
1)
1%
0(
0&
0.
b0 0
b0 1
b0 2
03
#1590
0!
#1595
1!
1#
0)
1)
1+
b1 -
1(
1.
b10 0
b10 1
b10001010 2
13
#1600
0!
#1605
1!
b1010100010101 /
b1 ,
b1010100010101 '
0)
0+
1+
1*
b0 -
1&
0%
#1610
0!
#1615
1!
0#
0*
0+
b1 -
1+
1*
b0 -
b0 ,
0*
0+
1)
1%
0(
0&
0.
b0 0
b0 1
b0 2
03
#1620
0!
#1625
1!
1#
0)
1)
1+
b1 -
1(
1.
b1 0
b10010101 2
#1630
0!
#1635
1!
b100100101010 /
b1 ,
b100100101010 '
0)
0+
1+
1*
b0 -
1&
0%
#1640
0!
#1645
1!
0#
0*
0+
b1 -
1+
1*
b0 -
b0 ,
0*
0+
1)
1%
0(
0&
0.
b0 0
b0 2
#1650
0!
#1655
1!
1#
0)
1)
1+
b1 -
1(
1.
b1 0
b1 1
b1010101 2
13
#1660
0!
#1665
1!
b101010101011 /
b1 ,
b101010101011 '
0)
0+
1+
1*
b0 -
1&
0%
#1670
0!
#1675
1!
0#
0*
0+
b1 -
1+
1*
b0 -
b0 ,
0*
0+
1)
1%
0(
0&
0.
b0 0
b0 1
b0 2
03
#1680
0!
#1685
1!
1#
0)
1)
1+
b1 -
1(
1.
b1 0
b11 1
b111000 2
#1690
0!
#1695
1!
b111001110000 /
b1 ,
b111001110000 '
0)
0+
1+
1*
b0 -
1&
0%
#1700
0!
#1705
1!
0#
0*
0+
b1 -
1+
1*
b0 -
b0 ,
0*
0+
1)
1%
0(
0&
0.
b0 0
b0 1
b0 2
#1710
0!
#1715
1!
1#
0)
1)
1+
b1 -
1(
1.
b1 0
b10111100 2
#1720
0!
#1725
1!
b100101111000 /
b1 ,
b100101111000 '
0)
0+
1+
1*
b0 -
1&
0%
#1730
0!
#1735
1!
0#
0*
0+
b1 -
1+
1*
b0 -
b0 ,
0*
0+
1)
1%
0(
0&
0.
b0 0
b0 2
#1740
0!
#1745
1!
1#
0)
1)
1+
b1 -
1(
1.
b1 0
b11 1
b10111010 2
#1750
0!
#1755
1!
b111101110100 /
b1 ,
b111101110100 '
0)
0+
1+
1*
b0 -
1&
0%
#1760
0!
#1765
1!
0#
0*
0+
b1 -
1+
1*
b0 -
b0 ,
0*
0+
1)
1%
0(
0&
0.
b0 0
b0 1
b0 2
#1770
0!
#1775
1!
1#
0)
1)
1+
b1 -
1(
1.
b1 0
b10 1
b111001 2
#1780
0!
#1785
1!
b110001110010 /
b1 ,
b110001110010 '
0)
0+
1+
1*
b0 -
1&
0%
#1790
0!
#1795
1!
0#
0*
0+
b1 -
1+
1*
b0 -
b0 ,
0*
0+
1)
1%
0(
0&
0.
b0 0
b0 1
b0 2
#1800
0!
#1805
1!
1#
0)
1)
1+
b1 -
1(
1.
b11 0
b11 1
b11010 2
13
#1810
0!
#1815
1!
b1111000110101 /
b1 ,
b1111000110101 '
0)
0+
1+
1*
b0 -
1&
0%
#1820
0!
#1825
1!
0#
0*
0+
b1 -
1+
1*
b0 -
b0 ,
0*
0+
1)
1%
0(
0&
0.
b0 0
b0 1
b0 2
03
#1830
0!
#1835
1!
1#
0)
1)
1+
b1 -
1(
1.
b1 1
b1100100 2
13
#1840
0!
#1845
1!
b1011001001 /
b1 ,
b1011001001 '
0)
0+
1+
1*
b0 -
1&
0%
#1850
0!
#1855
1!
0#
0*
0+
b1 -
1+
1*
b0 -
b0 ,
0*
0+
1)
1%
0(
0&
0.
b0 1
b0 2
03
#1860
0!
#1865
1!
1#
0)
1)
1+
b1 -
1(
1.
b11 1
b10011011 2
#1870
0!
#1875
1!
b11100110110 /
b1 ,
b11100110110 '
0)
0+
1+
1*
b0 -
1&
0%
#1880
0!
#1885
1!
0#
0*
0+
b1 -
1+
1*
b0 -
b0 ,
0*
0+
1)
1%
0(
0&
0.
b0 1
b0 2
#1890
0!
#1895
1!
1#
0)
1)
1+
b1 -
1(
1.
b1 0
b10111011 2
#1900
0!
#1905
1!
b100101110110 /
b1 ,
b100101110110 '
0)
0+
1+
1*
b0 -
1&
0%
#1910
0!
#1915
1!
0#
0*
0+
b1 -
1+
1*
b0 -
b0 ,
0*
0+
1)
1%
0(
0&
0.
b0 0
b0 2
#1920
0!
#1925
1!
1#
0)
1)
1+
b1 -
1(
1.
b11 0
b11 1
b10 2
#1930
0!
#1935
1!
b1111000000100 /
b1 ,
b1111000000100 '
0)
0+
1+
1*
b0 -
1&
0%
#1940
0!
#1945
1!
0#
0*
0+
b1 -
1+
1*
b0 -
b0 ,
0*
0+
1)
1%
0(
0&
0.
b0 0
b0 1
b0 2
#1950
0!
#1955
1!
1#
0)
1)
1+
b1 -
1(
1.
b11 0
b10 1
b1000111 2
13
#1960
0!
#1965
1!
b1110010001111 /
b1 ,
b1110010001111 '
0)
0+
1+
1*
b0 -
1&
0%
#1970
0!
#1975
1!
0#
0*
0+
b1 -
1+
1*
b0 -
b0 ,
0*
0+
1)
1%
0(
0&
0.
b0 0
b0 1
b0 2
03
#1980
0!
#1985
1!
1#
0)
1)
1+
b1 -
1(
1.
b11 0
b1 1
b110110 2
13
#1990
0!
#1995
1!
b1101001101101 /
b1 ,
b1101001101101 '
0)
0+
1+
1*
b0 -
1&
0%
#2000
0!
#2005
1!
0#
0*
0+
b1 -
1+
1*
b0 -
b0 ,
0*
0+
1)
1%
0(
0&
0.
b0 0
b0 1
b0 2
03
#2010
0!
#2015
1!
1#
0)
1)
1+
b1 -
1(
1.
b11 1
b11011011 2
13
#2020
0!
#2025
1!
b11110110111 /
b1 ,
b11110110111 '
0)
0+
1+
1*
b0 -
1&
0%
#2030
0!
#2035
1!
0#
0*
0+
b1 -
1+
1*
b0 -
b0 ,
0*
0+
1)
1%
0(
0&
0.
b0 1
b0 2
03
#2040
0!
#2045
1!
1#
0)
1)
1+
b1 -
1(
1.
b10 1
b10001001 2
13
#2050
0!
#2055
1!
b10100010011 /
b1 ,
b10100010011 '
0)
0+
1+
1*
b0 -
1&
0%
#2060
0!
#2065
1!
0#
0*
0+
b1 -
1+
1*
b0 -
b0 ,
0*
0+
1)
1%
0(
0&
0.
b0 1
b0 2
03
#2070
0!
#2075
1!
1#
0)
1)
1+
b1 -
1(
1.
b1 0
b11 1
b10100000 2
13
#2080
0!
#2085
1!
b111101000001 /
b1 ,
b111101000001 '
0)
0+
1+
1*
b0 -
1&
0%
#2090
0!
#2095
1!
0#
0*
0+
b1 -
1+
1*
b0 -
b0 ,
0*
0+
1)
1%
0(
0&
0.
b0 0
b0 1
b0 2
03
#2100
0!
#2105
1!
1#
0)
1)
1+
b1 -
1(
1.
b1 0
b11 1
b1101001 2
#2110
0!
#2115
1!
b111011010010 /
b1 ,
b111011010010 '
0)
0+
1+
1*
b0 -
1&
0%
#2120
0!
#2125
1!
0#
0*
0+
b1 -
1+
1*
b0 -
b0 ,
0*
0+
1)
1%
0(
0&
0.
b0 0
b0 1
b0 2
#2130
0!
#2135
1!
1#
0)
1)
1+
b1 -
1(
1.
b1 1
b1011000 2
13
#2140
0!
#2145
1!
b1010110001 /
b1 ,
b1010110001 '
0)
0+
1+
1*
b0 -
1&
0%
#2150
0!
#2155
1!
0#
0*
0+
b1 -
1+
1*
b0 -
b0 ,
0*
0+
1)
1%
0(
0&
0.
b0 1
b0 2
03
#2160
0!
#2165
1!
1#
0)
1)
1+
b1 -
1(
1.
b1 1
b111110 2
#2170
0!
#2175
1!
b1001111100 /
b1 ,
b1001111100 '
0)
0+
1+
1*
b0 -
1&
0%
#2180
0!
#2185
1!
0#
0*
0+
b1 -
1+
1*
b0 -
b0 ,
0*
0+
1)
1%
0(
0&
0.
b0 1
b0 2
#2190
0!
#2195
1!
1#
0)
1)
1+
b1 -
1(
1.
b11 0
b11 2
13
#2200
0!
#2205
1!
b1100000000111 /
b1 ,
b1100000000111 '
0)
0+
1+
1*
b0 -
1&
0%
#2210
0!
#2215
1!
0#
0*
0+
b1 -
1+
1*
b0 -
b0 ,
0*
0+
1)
1%
0(
0&
0.
b0 0
b0 2
03
#2220
0!
#2225
1!
1#
0)
1)
1+
b1 -
1(
1.
b11 0
b10 1
b1101111 2
#2230
0!
#2235
1!
b1110011011110 /
b1 ,
b1110011011110 '
0)
0+
1+
1*
b0 -
1&
0%
#2240
0!
#2245
1!
0#
0*
0+
b1 -
1+
1*
b0 -
b0 ,
0*
0+
1)
1%
0(
0&
0.
b0 0
b0 1
b0 2
#2250
0!
#2255
1!
1#
0)
1)
1+
b1 -
1(
1.
b11 1
b11011100 2
#2260
0!
#2265
1!
b11110111000 /
b1 ,
b11110111000 '
0)
0+
1+
1*
b0 -
1&
0%
#2270
0!
